\relax 
\providecommand\hyper@newdestlabel[2]{}
\providecommand\HyperFirstAtBeginDocument{\AtBeginDocument}
\HyperFirstAtBeginDocument{\ifx\hyper@anchor\@undefined
\global\let\oldcontentsline\contentsline
\gdef\contentsline#1#2#3#4{\oldcontentsline{#1}{#2}{#3}}
\global\let\oldnewlabel\newlabel
\gdef\newlabel#1#2{\newlabelxx{#1}#2}
\gdef\newlabelxx#1#2#3#4#5#6{\oldnewlabel{#1}{{#2}{#3}}}
\AtEndDocument{\ifx\hyper@anchor\@undefined
\let\contentsline\oldcontentsline
\let\newlabel\oldnewlabel
\fi}
\fi}
\global\let\hyper@last\relax 
\gdef\HyperFirstAtBeginDocument#1{#1}
\providecommand\HyField@AuxAddToFields[1]{}
\providecommand\HyField@AuxAddToCoFields[2]{}
\@writefile{toc}{\beamer@endinputifotherversion {3.32pt}}
\@writefile{nav}{\beamer@endinputifotherversion {3.32pt}}
\@writefile{nav}{\headcommand {\slideentry {0}{0}{1}{1/1}{}{0}}}
\@writefile{nav}{\headcommand {\beamer@framepages {1}{1}}}
\@writefile{nav}{\headcommand {\slideentry {0}{0}{2}{2/2}{}{0}}}
\@writefile{nav}{\headcommand {\beamer@framepages {2}{2}}}
\citation{tarjan85}
\@writefile{toc}{\beamer@sectionintoc {1}{Basics}{3}{0}{1}}
\@writefile{nav}{\headcommand {\sectionentry {1}{Basics}{3}{Basics}{0}}}
\@writefile{nav}{\headcommand {\beamer@sectionpages {1}{2}}}
\@writefile{nav}{\headcommand {\beamer@subsectionpages {1}{2}}}
\@writefile{nav}{\headcommand {\slideentry {1}{0}{3}{3/3}{}{0}}}
\@writefile{nav}{\headcommand {\beamer@framepages {3}{3}}}
\citation{tarjan85}
\@writefile{nav}{\headcommand {\slideentry {1}{0}{4}{4/4}{}{0}}}
\@writefile{nav}{\headcommand {\beamer@framepages {4}{4}}}
\citation{Jost09carboncredits}
\@writefile{toc}{\beamer@sectionintoc {2}{\IeC {\textquotedblleft }Carbon Credits\IeC {\textquotedblright } for Resource-Bounded Comput. Using Amort. Analysis}{5}{0}{2}}
\@writefile{nav}{\headcommand {\sectionentry {2}{\IeC {\textquotedblleft }Carbon Credits\IeC {\textquotedblright } for Resource-Bounded Comput. Using Amort. Analysis}{5}{\IeC {\textquotedblleft }Carbon Credits\IeC {\textquotedblright } for Resource-Bounded Comput. Using Amort. Analysis}{0}}}
\@writefile{nav}{\headcommand {\beamer@sectionpages {1}{4}}}
\@writefile{nav}{\headcommand {\beamer@subsectionpages {1}{4}}}
\@writefile{nav}{\headcommand {\slideentry {2}{0}{5}{5/5}{}{0}}}
\@writefile{nav}{\headcommand {\beamer@framepages {5}{5}}}
\citation{MoserNotes}
\@writefile{toc}{\beamer@sectionintoc {3}{Georg Moser's Notes on Amortised Cost Analysis}{6}{0}{3}}
\@writefile{nav}{\headcommand {\sectionentry {3}{Georg Moser's Notes on Amortised Cost Analysis}{6}{Georg Moser's Notes on Amortised Cost Analysis}{0}}}
\@writefile{nav}{\headcommand {\beamer@sectionpages {1}{5}}}
\@writefile{nav}{\headcommand {\beamer@subsectionpages {1}{5}}}
\@writefile{nav}{\headcommand {\slideentry {3}{0}{6}{6/6}{}{0}}}
\@writefile{nav}{\headcommand {\beamer@framepages {6}{6}}}
\@writefile{toc}{\beamer@sectionintoc {4}{Bachelorthesis: Amortized Resource Analysis and Carbon Credits}{7}{0}{4}}
\@writefile{nav}{\headcommand {\sectionentry {4}{Bachelorthesis: Amortized Resource Analysis and Carbon Credits}{7}{Bachelorthesis: Amortized Resource Analysis and Carbon Credits}{0}}}
\@writefile{nav}{\headcommand {\beamer@sectionpages {1}{6}}}
\@writefile{nav}{\headcommand {\beamer@subsectionpages {1}{6}}}
\@writefile{nav}{\headcommand {\slideentry {4}{0}{7}{7/7}{}{0}}}
\@writefile{nav}{\headcommand {\beamer@framepages {7}{7}}}
\@writefile{nav}{\headcommand {\slideentry {4}{0}{8}{8/8}{}{0}}}
\@writefile{nav}{\headcommand {\beamer@framepages {8}{8}}}
\@writefile{nav}{\headcommand {\slideentry {4}{0}{9}{9/9}{}{0}}}
\@writefile{nav}{\headcommand {\beamer@framepages {9}{9}}}
\@writefile{nav}{\headcommand {\slideentry {4}{0}{10}{10/10}{}{0}}}
\@writefile{nav}{\headcommand {\beamer@framepages {10}{10}}}
\@writefile{nav}{\headcommand {\slideentry {4}{0}{11}{11/11}{}{0}}}
\@writefile{nav}{\headcommand {\beamer@framepages {11}{11}}}
\bibstyle{apalike}
\bibdata{bib/db}
\bibcite{Jost09carboncredits}{\hyperlink {beamerbibJost09carboncredits}{Jost et\nobreakspace  {}al., 2009}}
\bibcite{MoserNotes}{\hyperlink {beamerbibMoserNotes}{Moser, 2013}}
\bibcite{tarjan85}{\hyperlink {beamerbibtarjan85}{Tarjan, 1985}}
\@writefile{nav}{\headcommand {\beamer@partpages {1}{12}}}
\@writefile{nav}{\headcommand {\beamer@subsectionpages {1}{12}}}
\@writefile{nav}{\headcommand {\beamer@sectionpages {1}{12}}}
\@writefile{nav}{\headcommand {\beamer@documentpages {12}}}
\@writefile{nav}{\headcommand {\def \inserttotalframenumber {10}}}
