\beamer@endinputifotherversion {3.26pt}
\headcommand {\slideentry {0}{0}{1}{1/1}{}{0}}
\headcommand {\beamer@framepages {1}{1}}
\headcommand {\slideentry {0}{0}{2}{2/2}{}{0}}
\headcommand {\beamer@framepages {2}{2}}
\headcommand {\sectionentry {1}{Basics}{3}{Basics}{0}}
\headcommand {\beamer@sectionpages {1}{2}}
\headcommand {\beamer@subsectionpages {1}{2}}
\headcommand {\beamer@subsectionentry {0}{1}{1}{3}{Resource Analysis - Problem}}\headcommand {\beamer@subsectionpages {3}{2}}
\headcommand {\slideentry {1}{1}{0}{3/3}{}{0}}
\headcommand {\beamer@framepages {3}{3}}
\headcommand {\beamer@subsectionentry {0}{1}{2}{4}{Amortised Resource Analysis - Solution}}\headcommand {\beamer@subsectionpages {3}{3}}
\headcommand {\slideentry {1}{2}{0}{4/4}{}{0}}
\headcommand {\beamer@framepages {4}{4}}
\headcommand {\slideentry {1}{2}{1}{5/5}{}{0}}
\headcommand {\beamer@framepages {5}{5}}
\headcommand {\sectionentry {2}{\IeC {\textquotedblleft }Carbon Credits\IeC {\textquotedblright } for Resource-Bounded Computations Using Amortised Analysis}{6}{\IeC {\textquotedblleft }Carbon Credits\IeC {\textquotedblright } for Resource-Bounded Computations Using Amortised Analysis}{0}}
\headcommand {\beamer@sectionpages {1}{5}}
\headcommand {\beamer@subsectionpages {1}{5}}
\headcommand {\beamer@subsectionentry {0}{2}{1}{6}{Paper Content}}\headcommand {\beamer@subsectionpages {6}{5}}
\headcommand {\slideentry {2}{1}{0}{6/6}{}{0}}
\headcommand {\beamer@framepages {6}{6}}
\headcommand {\beamer@subsectionentry {0}{2}{2}{7}{Results}}\headcommand {\beamer@subsectionpages {6}{6}}
\headcommand {\slideentry {2}{2}{0}{7/7}{}{0}}
\headcommand {\beamer@framepages {7}{7}}
\headcommand {\sectionentry {3}{Georg Moser's Notes on Amortised Cost Analysis}{8}{Georg Moser's Notes on Amortised Cost Analysis}{0}}
\headcommand {\beamer@sectionpages {1}{7}}
\headcommand {\beamer@subsectionpages {1}{7}}
\headcommand {\beamer@subsectionentry {0}{3}{1}{8}{The Idea}}\headcommand {\beamer@subsectionpages {8}{7}}
\headcommand {\slideentry {3}{1}{0}{8/8}{}{0}}
\headcommand {\beamer@framepages {8}{8}}
\headcommand {\sectionentry {4}{Bachelorthesis: Amortised Resource Analysis and Carbon Credits}{9}{Bachelorthesis: Amortised Resource Analysis and Carbon Credits}{0}}
\headcommand {\beamer@sectionpages {1}{8}}
\headcommand {\beamer@subsectionpages {1}{8}}
\headcommand {\beamer@subsectionentry {0}{4}{1}{9}{Requierement 1}}\headcommand {\beamer@subsectionpages {9}{8}}
\headcommand {\slideentry {4}{1}{0}{9/9}{}{0}}
\headcommand {\beamer@framepages {9}{9}}
\headcommand {\beamer@subsectionentry {0}{4}{2}{10}{Requierement 2}}\headcommand {\beamer@subsectionpages {9}{9}}
\headcommand {\slideentry {4}{2}{0}{10/10}{}{0}}
\headcommand {\beamer@framepages {10}{10}}
\headcommand {\beamer@subsectionentry {0}{4}{3}{11}{Requierement 3}}\headcommand {\beamer@subsectionpages {9}{10}}
\headcommand {\slideentry {4}{3}{0}{11/11}{}{0}}
\headcommand {\beamer@framepages {11}{11}}
\headcommand {\sectionentry {5}{Questions - Remarks}{12}{Questions - Remarks}{0}}
\headcommand {\beamer@sectionpages {1}{11}}
\headcommand {\beamer@subsectionpages {1}{11}}
\headcommand {\slideentry {5}{0}{1}{12/12}{}{0}}
\headcommand {\beamer@framepages {12}{12}}
\headcommand {\slideentry {5}{0}{2}{13/13}{}{0}}
\headcommand {\beamer@framepages {13}{13}}
\headcommand {\beamer@partpages {1}{13}}
\headcommand {\beamer@subsectionpages {1}{13}}
\headcommand {\beamer@sectionpages {1}{13}}
\headcommand {\beamer@documentpages {13}}
\headcommand {\def \inserttotalframenumber {12}}
