PWD /home/schnecki/Documents/UIBK/5.Semester/Bachelorarbeit/Presentations/Initial_Presentation
INPUT /usr/share/texlive/texmf-dist/web2c/texmf.cnf
INPUT /usr/share/texlive/texmf-var/web2c/pdftex/pdflatex.fmt
INPUT _region_.tex
OUTPUT _region_.log
INPUT /usr/share/texlive/texmf-dist/tex/latex/beamer/beamer.cls
INPUT /usr/share/texlive/texmf-dist/tex/latex/beamer/beamer.cls
INPUT /usr/share/texlive/texmf-dist/tex/latex/beamer/beamerbasercs.sty
INPUT /usr/share/texlive/texmf-dist/tex/latex/beamer/beamerbasercs.sty
INPUT /usr/share/texlive/texmf-dist/tex/latex/beamer/beamerbasemodes.sty
INPUT /usr/share/texlive/texmf-dist/tex/latex/beamer/beamerbasemodes.sty
INPUT /usr/share/texlive/texmf-dist/tex/latex/beamer/beamerbasedecode.sty
INPUT /usr/share/texlive/texmf-dist/tex/latex/beamer/beamerbasedecode.sty
INPUT /usr/share/texlive/texmf-dist/tex/generic/oberdiek/ifpdf.sty
INPUT /usr/share/texlive/texmf-dist/tex/generic/oberdiek/ifpdf.sty
INPUT /usr/share/texlive/texmf-dist/tex/latex/beamer/beamerbaseoptions.sty
INPUT /usr/share/texlive/texmf-dist/tex/latex/beamer/beamerbaseoptions.sty
INPUT /usr/share/texlive/texmf-dist/tex/latex/graphics/keyval.sty
INPUT /usr/share/texlive/texmf-dist/tex/latex/graphics/keyval.sty
INPUT /usr/share/texlive/texmf-dist/tex/latex/geometry/geometry.sty
INPUT /usr/share/texlive/texmf-dist/tex/latex/geometry/geometry.sty
INPUT /usr/share/texlive/texmf-dist/tex/generic/oberdiek/ifvtex.sty
INPUT /usr/share/texlive/texmf-dist/tex/generic/oberdiek/ifvtex.sty
INPUT /usr/share/texlive/texmf-dist/tex/generic/ifxetex/ifxetex.sty
INPUT /usr/share/texlive/texmf-dist/tex/generic/ifxetex/ifxetex.sty
INPUT /usr/share/texlive/texmf-dist/tex/latex/base/size11.clo
INPUT /usr/share/texlive/texmf-dist/tex/latex/base/size11.clo
INPUT /usr/share/texlive/texmf-dist/fonts/tfm/public/cm/cmr10.tfm
INPUT /usr/share/texlive/texmf-dist/tex/latex/pgf/basiclayer/pgfcore.sty
INPUT /usr/share/texlive/texmf-dist/tex/latex/pgf/basiclayer/pgfcore.sty
INPUT /usr/share/texlive/texmf-dist/tex/latex/graphics/graphicx.sty
INPUT /usr/share/texlive/texmf-dist/tex/latex/graphics/graphicx.sty
INPUT /usr/share/texlive/texmf-dist/tex/latex/graphics/graphics.sty
INPUT /usr/share/texlive/texmf-dist/tex/latex/graphics/graphics.sty
INPUT /usr/share/texlive/texmf-dist/tex/latex/graphics/trig.sty
INPUT /usr/share/texlive/texmf-dist/tex/latex/graphics/trig.sty
INPUT /usr/share/texlive/texmf-dist/tex/latex/latexconfig/graphics.cfg
INPUT /usr/share/texlive/texmf-dist/tex/latex/latexconfig/graphics.cfg
INPUT /usr/share/texlive/texmf-dist/tex/latex/pdftex-def/pdftex.def
INPUT /usr/share/texlive/texmf-dist/tex/latex/pdftex-def/pdftex.def
INPUT /usr/share/texlive/texmf-dist/tex/generic/oberdiek/infwarerr.sty
INPUT /usr/share/texlive/texmf-dist/tex/generic/oberdiek/infwarerr.sty
INPUT /usr/share/texlive/texmf-dist/tex/generic/oberdiek/ltxcmds.sty
INPUT /usr/share/texlive/texmf-dist/tex/generic/oberdiek/ltxcmds.sty
INPUT /usr/share/texlive/texmf-dist/tex/latex/pgf/systemlayer/pgfsys.sty
INPUT /usr/share/texlive/texmf-dist/tex/latex/pgf/systemlayer/pgfsys.sty
INPUT /usr/share/texlive/texmf-dist/tex/latex/pgf/utilities/pgfrcs.sty
INPUT /usr/share/texlive/texmf-dist/tex/latex/pgf/utilities/pgfrcs.sty
INPUT /usr/share/texlive/texmf-dist/tex/generic/pgf/utilities/pgfutil-common.tex
INPUT /usr/share/texlive/texmf-dist/tex/generic/pgf/utilities/pgfutil-latex.def
INPUT /usr/share/texlive/texmf-dist/tex/latex/ms/everyshi.sty
INPUT /usr/share/texlive/texmf-dist/tex/latex/ms/everyshi.sty
INPUT /usr/share/texlive/texmf-dist/tex/generic/pgf/utilities/pgfrcs.code.tex
INPUT /usr/share/texlive/texmf-dist/tex/generic/pgf/utilities/pgfrcs.code.tex
INPUT /usr/share/texlive/texmf-dist/tex/generic/pgf/systemlayer/pgfsys.code.tex
INPUT /usr/share/texlive/texmf-dist/tex/generic/pgf/systemlayer/pgfsys.code.tex
INPUT /usr/share/texlive/texmf-dist/tex/generic/pgf/utilities/pgfkeys.code.tex
INPUT /usr/share/texlive/texmf-dist/tex/generic/pgf/utilities/pgfkeysfiltered.code.tex
INPUT /usr/share/texlive/texmf-dist/tex/generic/pgf/systemlayer/pgf.cfg
INPUT /usr/share/texlive/texmf-dist/tex/generic/pgf/systemlayer/pgfsys-pdftex.def
INPUT /usr/share/texlive/texmf-dist/tex/generic/pgf/systemlayer/pgfsys-pdftex.def
INPUT /usr/share/texlive/texmf-dist/tex/generic/pgf/systemlayer/pgfsys-common-pdf.def
INPUT /usr/share/texlive/texmf-dist/tex/generic/pgf/systemlayer/pgfsyssoftpath.code.tex
INPUT /usr/share/texlive/texmf-dist/tex/generic/pgf/systemlayer/pgfsyssoftpath.code.tex
INPUT /usr/share/texlive/texmf-dist/tex/generic/pgf/systemlayer/pgfsysprotocol.code.tex
INPUT /usr/share/texlive/texmf-dist/tex/generic/pgf/systemlayer/pgfsysprotocol.code.tex
INPUT /usr/share/texlive/texmf-dist/tex/latex/xcolor/xcolor.sty
INPUT /usr/share/texlive/texmf-dist/tex/latex/xcolor/xcolor.sty
INPUT /usr/share/texlive/texmf-dist/tex/latex/latexconfig/color.cfg
INPUT /usr/share/texlive/texmf-dist/tex/latex/latexconfig/color.cfg
INPUT /usr/share/texlive/texmf-dist/tex/generic/pgf/basiclayer/pgfcore.code.tex
INPUT /usr/share/texlive/texmf-dist/tex/generic/pgf/basiclayer/pgfcore.code.tex
INPUT /usr/share/texlive/texmf-dist/tex/generic/pgf/math/pgfmath.code.tex
INPUT /usr/share/texlive/texmf-dist/tex/generic/pgf/math/pgfmathcalc.code.tex
INPUT /usr/share/texlive/texmf-dist/tex/generic/pgf/math/pgfmathutil.code.tex
INPUT /usr/share/texlive/texmf-dist/tex/generic/pgf/math/pgfmathparser.code.tex
INPUT /usr/share/texlive/texmf-dist/tex/generic/pgf/math/pgfmathfunctions.code.tex
INPUT /usr/share/texlive/texmf-dist/tex/generic/pgf/math/pgfmathfunctions.basic.code.tex
INPUT /usr/share/texlive/texmf-dist/tex/generic/pgf/math/pgfmathfunctions.trigonometric.code.tex
INPUT /usr/share/texlive/texmf-dist/tex/generic/pgf/math/pgfmathfunctions.random.code.tex
INPUT /usr/share/texlive/texmf-dist/tex/generic/pgf/math/pgfmathfunctions.comparison.code.tex
INPUT /usr/share/texlive/texmf-dist/tex/generic/pgf/math/pgfmathfunctions.base.code.tex
INPUT /usr/share/texlive/texmf-dist/tex/generic/pgf/math/pgfmathfunctions.round.code.tex
INPUT /usr/share/texlive/texmf-dist/tex/generic/pgf/math/pgfmathfunctions.misc.code.tex
INPUT /usr/share/texlive/texmf-dist/tex/generic/pgf/math/pgfmathfloat.code.tex
INPUT /usr/share/texlive/texmf-dist/tex/generic/pgf/basiclayer/pgfcorepoints.code.tex
INPUT /usr/share/texlive/texmf-dist/tex/generic/pgf/basiclayer/pgfcorepathconstruct.code.tex
INPUT /usr/share/texlive/texmf-dist/tex/generic/pgf/basiclayer/pgfcorepathusage.code.tex
INPUT /usr/share/texlive/texmf-dist/tex/generic/pgf/basiclayer/pgfcorescopes.code.tex
INPUT /usr/share/texlive/texmf-dist/tex/generic/pgf/basiclayer/pgfcoregraphicstate.code.tex
INPUT /usr/share/texlive/texmf-dist/tex/generic/pgf/basiclayer/pgfcoretransformations.code.tex
INPUT /usr/share/texlive/texmf-dist/tex/generic/pgf/basiclayer/pgfcorequick.code.tex
INPUT /usr/share/texlive/texmf-dist/tex/generic/pgf/basiclayer/pgfcoreobjects.code.tex
INPUT /usr/share/texlive/texmf-dist/tex/generic/pgf/basiclayer/pgfcorepathprocessing.code.tex
INPUT /usr/share/texlive/texmf-dist/tex/generic/pgf/basiclayer/pgfcorearrows.code.tex
INPUT /usr/share/texlive/texmf-dist/tex/generic/pgf/basiclayer/pgfcoreshade.code.tex
INPUT /usr/share/texlive/texmf-dist/tex/generic/pgf/basiclayer/pgfcoreimage.code.tex
INPUT /usr/share/texlive/texmf-dist/tex/generic/pgf/basiclayer/pgfcoreexternal.code.tex
INPUT /usr/share/texlive/texmf-dist/tex/generic/pgf/basiclayer/pgfcorelayers.code.tex
INPUT /usr/share/texlive/texmf-dist/tex/generic/pgf/basiclayer/pgfcoretransparency.code.tex
INPUT /usr/share/texlive/texmf-dist/tex/generic/pgf/basiclayer/pgfcorepatterns.code.tex
INPUT /usr/share/texlive/texmf-dist/tex/latex/pgf/utilities/xxcolor.sty
INPUT /usr/share/texlive/texmf-dist/tex/latex/pgf/utilities/xxcolor.sty
INPUT /usr/share/texlive/texmf-dist/tex/latex/hyperref/hyperref.sty
INPUT /usr/share/texlive/texmf-dist/tex/latex/hyperref/hyperref.sty
INPUT /usr/share/texlive/texmf-dist/tex/generic/oberdiek/hobsub-hyperref.sty
INPUT /usr/share/texlive/texmf-dist/tex/generic/oberdiek/hobsub-hyperref.sty
INPUT /usr/share/texlive/texmf-dist/tex/generic/oberdiek/hobsub-hyperref.sty
INPUT /usr/share/texlive/texmf-dist/tex/generic/oberdiek/hobsub-generic.sty
INPUT /usr/share/texlive/texmf-dist/tex/generic/oberdiek/hobsub-generic.sty
INPUT /usr/share/texlive/texmf-dist/tex/latex/oberdiek/auxhook.sty
INPUT /usr/share/texlive/texmf-dist/tex/latex/oberdiek/auxhook.sty
INPUT /usr/share/texlive/texmf-dist/tex/latex/oberdiek/kvoptions.sty
INPUT /usr/share/texlive/texmf-dist/tex/latex/oberdiek/kvoptions.sty
INPUT /usr/share/texlive/texmf-dist/tex/latex/hyperref/pd1enc.def
INPUT /usr/share/texlive/texmf-dist/tex/latex/hyperref/pd1enc.def
INPUT /usr/share/texlive/texmf-dist/tex/latex/latexconfig/hyperref.cfg
INPUT /usr/share/texlive/texmf-dist/tex/latex/latexconfig/hyperref.cfg
INPUT /usr/share/texlive/texmf-dist/tex/latex/url/url.sty
INPUT /usr/share/texlive/texmf-dist/tex/latex/url/url.sty
INPUT /usr/share/texlive/texmf-dist/tex/latex/hyperref/hpdftex.def
INPUT /usr/share/texlive/texmf-dist/tex/latex/hyperref/hpdftex.def
INPUT /usr/share/texlive/texmf-dist/tex/latex/oberdiek/rerunfilecheck.sty
INPUT /usr/share/texlive/texmf-dist/tex/latex/oberdiek/rerunfilecheck.sty
INPUT /usr/share/texlive/texmf-dist/tex/latex/beamer/beamerbaserequires.sty
INPUT /usr/share/texlive/texmf-dist/tex/latex/beamer/beamerbaserequires.sty
INPUT /usr/share/texlive/texmf-dist/tex/latex/beamer/beamerbasecompatibility.sty
INPUT /usr/share/texlive/texmf-dist/tex/latex/beamer/beamerbasecompatibility.sty
INPUT /usr/share/texlive/texmf-dist/tex/latex/beamer/beamerbasefont.sty
INPUT /usr/share/texlive/texmf-dist/tex/latex/beamer/beamerbasefont.sty
INPUT /usr/share/texlive/texmf-dist/tex/latex/amsfonts/amssymb.sty
INPUT /usr/share/texlive/texmf-dist/tex/latex/amsfonts/amssymb.sty
INPUT /usr/share/texlive/texmf-dist/tex/latex/amsfonts/amsfonts.sty
INPUT /usr/share/texlive/texmf-dist/tex/latex/amsfonts/amsfonts.sty
INPUT /usr/share/texlive/texmf-dist/tex/latex/beamer/beamerbasetranslator.sty
INPUT /usr/share/texlive/texmf-dist/tex/latex/beamer/beamerbasetranslator.sty
INPUT /usr/share/texlive/texmf-dist/tex/latex/beamer/translator/translator.sty
INPUT /usr/share/texlive/texmf-dist/tex/latex/beamer/translator/translator.sty
INPUT /usr/share/texlive/texmf-dist/tex/latex/beamer/translator/translator-language-mappings.tex
INPUT /usr/share/texlive/texmf-dist/tex/latex/beamer/translator/translator-language-mappings.tex
INPUT /usr/share/texlive/texmf-dist/tex/latex/beamer/beamerbasemisc.sty
INPUT /usr/share/texlive/texmf-dist/tex/latex/beamer/beamerbasemisc.sty
INPUT /usr/share/texlive/texmf-dist/tex/latex/beamer/beamerbasetwoscreens.sty
INPUT /usr/share/texlive/texmf-dist/tex/latex/beamer/beamerbasetwoscreens.sty
INPUT /usr/share/texlive/texmf-dist/tex/latex/beamer/beamerbaseoverlay.sty
INPUT /usr/share/texlive/texmf-dist/tex/latex/beamer/beamerbaseoverlay.sty
INPUT /usr/share/texlive/texmf-dist/tex/latex/beamer/beamerbasetitle.sty
INPUT /usr/share/texlive/texmf-dist/tex/latex/beamer/beamerbasetitle.sty
INPUT /usr/share/texlive/texmf-dist/tex/latex/beamer/beamerbasesection.sty
INPUT /usr/share/texlive/texmf-dist/tex/latex/beamer/beamerbasesection.sty
INPUT /usr/share/texlive/texmf-dist/tex/latex/beamer/beamerbaseframe.sty
INPUT /usr/share/texlive/texmf-dist/tex/latex/beamer/beamerbaseframe.sty
INPUT /usr/share/texlive/texmf-dist/tex/latex/beamer/beamerbaseverbatim.sty
INPUT /usr/share/texlive/texmf-dist/tex/latex/beamer/beamerbaseverbatim.sty
INPUT /usr/share/texlive/texmf-dist/tex/latex/beamer/beamerbaseframesize.sty
INPUT /usr/share/texlive/texmf-dist/tex/latex/beamer/beamerbaseframesize.sty
INPUT /usr/share/texlive/texmf-dist/tex/latex/beamer/beamerbaseframecomponents.sty
INPUT /usr/share/texlive/texmf-dist/tex/latex/beamer/beamerbaseframecomponents.sty
INPUT /usr/share/texlive/texmf-dist/tex/latex/beamer/beamerbasecolor.sty
INPUT /usr/share/texlive/texmf-dist/tex/latex/beamer/beamerbasecolor.sty
INPUT /usr/share/texlive/texmf-dist/tex/latex/beamer/beamerbasenotes.sty
INPUT /usr/share/texlive/texmf-dist/tex/latex/beamer/beamerbasenotes.sty
INPUT /usr/share/texlive/texmf-dist/tex/latex/beamer/beamerbasetoc.sty
INPUT /usr/share/texlive/texmf-dist/tex/latex/beamer/beamerbasetoc.sty
INPUT /usr/share/texlive/texmf-dist/tex/latex/beamer/beamerbasetemplates.sty
INPUT /usr/share/texlive/texmf-dist/tex/latex/beamer/beamerbasetemplates.sty
INPUT /usr/share/texlive/texmf-dist/tex/latex/beamer/beamerbaseauxtemplates.sty
INPUT /usr/share/texlive/texmf-dist/tex/latex/beamer/beamerbaseauxtemplates.sty
INPUT /usr/share/texlive/texmf-dist/tex/latex/beamer/beamerbaseboxes.sty
INPUT /usr/share/texlive/texmf-dist/tex/latex/beamer/beamerbaseboxes.sty
INPUT /usr/share/texlive/texmf-dist/tex/latex/beamer/beamerbaselocalstructure.sty
INPUT /usr/share/texlive/texmf-dist/tex/latex/beamer/beamerbaselocalstructure.sty
INPUT /usr/share/texlive/texmf-dist/tex/latex/tools/enumerate.sty
INPUT /usr/share/texlive/texmf-dist/tex/latex/tools/enumerate.sty
INPUT /usr/share/texlive/texmf-dist/tex/latex/beamer/beamerbasenavigation.sty
INPUT /usr/share/texlive/texmf-dist/tex/latex/beamer/beamerbasenavigation.sty
INPUT /usr/share/texlive/texmf-dist/tex/latex/beamer/beamerbasetheorems.sty
INPUT /usr/share/texlive/texmf-dist/tex/latex/beamer/beamerbasetheorems.sty
INPUT /usr/share/texlive/texmf-dist/tex/latex/amsmath/amsmath.sty
INPUT /usr/share/texlive/texmf-dist/tex/latex/amsmath/amsmath.sty
INPUT /usr/share/texlive/texmf-dist/tex/latex/amsmath/amstext.sty
INPUT /usr/share/texlive/texmf-dist/tex/latex/amsmath/amstext.sty
INPUT /usr/share/texlive/texmf-dist/tex/latex/amsmath/amsgen.sty
INPUT /usr/share/texlive/texmf-dist/tex/latex/amsmath/amsgen.sty
INPUT /usr/share/texlive/texmf-dist/tex/latex/amsmath/amsbsy.sty
INPUT /usr/share/texlive/texmf-dist/tex/latex/amsmath/amsbsy.sty
INPUT /usr/share/texlive/texmf-dist/tex/latex/amsmath/amsopn.sty
INPUT /usr/share/texlive/texmf-dist/tex/latex/amsmath/amsopn.sty
INPUT /usr/share/texlive/texmf-dist/tex/latex/amscls/amsthm.sty
INPUT /usr/share/texlive/texmf-dist/tex/latex/amscls/amsthm.sty
INPUT /usr/share/texlive/texmf-dist/tex/latex/beamer/beamerbasethemes.sty
INPUT /usr/share/texlive/texmf-dist/tex/latex/beamer/beamerbasethemes.sty
INPUT /usr/share/texlive/texmf-dist/fonts/tfm/public/cm/cmss10.tfm
INPUT /usr/share/texlive/texmf-dist/tex/latex/beamer/themes/theme/beamerthemedefault.sty
INPUT /usr/share/texlive/texmf-dist/tex/latex/beamer/themes/theme/beamerthemedefault.sty
INPUT /usr/share/texlive/texmf-dist/tex/latex/beamer/themes/font/beamerfontthemedefault.sty
INPUT /usr/share/texlive/texmf-dist/tex/latex/beamer/themes/font/beamerfontthemedefault.sty
INPUT /usr/share/texlive/texmf-dist/tex/latex/beamer/themes/color/beamercolorthemedefault.sty
INPUT /usr/share/texlive/texmf-dist/tex/latex/beamer/themes/color/beamercolorthemedefault.sty
INPUT /usr/share/texlive/texmf-dist/tex/latex/beamer/themes/inner/beamerinnerthemedefault.sty
INPUT /usr/share/texlive/texmf-dist/tex/latex/beamer/themes/inner/beamerinnerthemedefault.sty
INPUT /usr/share/texlive/texmf-dist/tex/latex/beamer/art/beamericonbook.pdf
OUTPUT _region_.pdf
INPUT /usr/share/texlive/texmf-dist/tex/latex/beamer/art/beamericonbook.pdf
INPUT /usr/share/texlive/texmf-dist/tex/latex/beamer/art/beamericonbook.20.pdf
INPUT /usr/share/texlive/texmf-dist/tex/latex/beamer/art/beamericonbook.20.pdf
INPUT /usr/share/texlive/texmf-dist/tex/latex/beamer/art/beamericonarticle.pdf
INPUT /usr/share/texlive/texmf-dist/tex/latex/beamer/art/beamericonarticle.pdf
INPUT /usr/share/texlive/texmf-dist/tex/latex/beamer/art/beamericonarticle.20.pdf
INPUT /usr/share/texlive/texmf-dist/tex/latex/beamer/art/beamericonarticle.20.pdf
INPUT /usr/share/texlive/texmf-dist/tex/latex/beamer/art/beamericononline.pdf
INPUT /usr/share/texlive/texmf-dist/tex/latex/beamer/art/beamericononline.pdf
INPUT /usr/share/texlive/texmf-dist/tex/latex/beamer/art/beamericononline.20.pdf
INPUT /usr/share/texlive/texmf-dist/tex/latex/beamer/art/beamericononline.20.pdf
INPUT /usr/share/texlive/texmf-dist/tex/latex/beamer/themes/outer/beamerouterthemedefault.sty
INPUT /usr/share/texlive/texmf-dist/tex/latex/beamer/themes/outer/beamerouterthemedefault.sty
INPUT /usr/share/texlive/texmf-dist/tex/latex/base/inputenc.sty
INPUT /usr/share/texlive/texmf-dist/tex/latex/base/inputenc.sty
INPUT /usr/share/texlive/texmf-dist/tex/latex/base/utf8.def
INPUT /usr/share/texlive/texmf-dist/tex/latex/base/utf8.def
INPUT /usr/share/texlive/texmf-dist/tex/latex/base/t1enc.dfu
INPUT /usr/share/texlive/texmf-dist/tex/latex/base/t1enc.dfu
INPUT /usr/share/texlive/texmf-dist/tex/latex/base/ot1enc.dfu
INPUT /usr/share/texlive/texmf-dist/tex/latex/base/ot1enc.dfu
INPUT /usr/share/texlive/texmf-dist/tex/latex/base/omsenc.dfu
INPUT /usr/share/texlive/texmf-dist/tex/latex/base/omsenc.dfu
INPUT _region_.aux
INPUT _region_.aux
OUTPUT _region_.aux
INPUT /usr/share/texlive/texmf-dist/tex/context/base/supp-pdf.mkii
INPUT /usr/share/texlive/texmf-dist/tex/context/base/supp-pdf.mkii
INPUT /usr/share/texlive/texmf-dist/tex/latex/oberdiek/epstopdf-base.sty
INPUT /usr/share/texlive/texmf-dist/tex/latex/oberdiek/epstopdf-base.sty
INPUT /usr/share/texlive/texmf-dist/tex/latex/oberdiek/grfext.sty
INPUT /usr/share/texlive/texmf-dist/tex/latex/oberdiek/grfext.sty
INPUT /usr/share/texlive/texmf-dist/tex/latex/latexconfig/epstopdf-sys.cfg
INPUT /usr/share/texlive/texmf-dist/tex/latex/latexconfig/epstopdf-sys.cfg
INPUT /usr/share/texlive/texmf-dist/tex/latex/hyperref/nameref.sty
INPUT /usr/share/texlive/texmf-dist/tex/latex/hyperref/nameref.sty
INPUT /usr/share/texlive/texmf-dist/tex/generic/oberdiek/gettitlestring.sty
INPUT /usr/share/texlive/texmf-dist/tex/generic/oberdiek/gettitlestring.sty
INPUT _region_.out
INPUT _region_.out
INPUT _region_.out
INPUT _region_.out
INPUT ./_region_.out
INPUT ./_region_.out
OUTPUT _region_.out
INPUT /usr/share/texlive/texmf-dist/tex/latex/beamer/translator/dicts/translator-basic-dictionary/translator-basic-dictionary-English.dict
INPUT /usr/share/texlive/texmf-dist/tex/latex/beamer/translator/dicts/translator-basic-dictionary/translator-basic-dictionary-English.dict
INPUT /usr/share/texlive/texmf-dist/tex/latex/beamer/translator/dicts/translator-bibliography-dictionary/translator-bibliography-dictionary-English.dict
INPUT /usr/share/texlive/texmf-dist/tex/latex/beamer/translator/dicts/translator-bibliography-dictionary/translator-bibliography-dictionary-English.dict
INPUT /usr/share/texlive/texmf-dist/tex/latex/beamer/translator/dicts/translator-environment-dictionary/translator-environment-dictionary-English.dict
INPUT /usr/share/texlive/texmf-dist/tex/latex/beamer/translator/dicts/translator-environment-dictionary/translator-environment-dictionary-English.dict
INPUT /usr/share/texlive/texmf-dist/tex/latex/beamer/translator/dicts/translator-months-dictionary/translator-months-dictionary-English.dict
INPUT /usr/share/texlive/texmf-dist/tex/latex/beamer/translator/dicts/translator-months-dictionary/translator-months-dictionary-English.dict
INPUT /usr/share/texlive/texmf-dist/tex/latex/beamer/translator/dicts/translator-numbers-dictionary/translator-numbers-dictionary-English.dict
INPUT /usr/share/texlive/texmf-dist/tex/latex/beamer/translator/dicts/translator-numbers-dictionary/translator-numbers-dictionary-English.dict
INPUT /usr/share/texlive/texmf-dist/tex/latex/beamer/translator/dicts/translator-theorem-dictionary/translator-theorem-dictionary-English.dict
INPUT /usr/share/texlive/texmf-dist/tex/latex/beamer/translator/dicts/translator-theorem-dictionary/translator-theorem-dictionary-English.dict
INPUT _region_.nav
INPUT _region_.nav
INPUT /usr/share/texlive/texmf-dist/fonts/tfm/public/cm/cmss8.tfm
INPUT /usr/share/texlive/texmf-dist/fonts/tfm/public/cm/cmss12.tfm
INPUT /usr/share/texlive/texmf-dist/fonts/tfm/public/cm/cmss8.tfm
INPUT /usr/share/texlive/texmf-dist/fonts/tfm/public/cm/cmss8.tfm
INPUT /usr/share/texlive/texmf-dist/fonts/map/pdftex/updmap/pdftex.map
INPUT _region_.toc
INPUT _region_.toc
INPUT /usr/share/texlive/texmf-dist/fonts/tfm/public/cm/cmmi8.tfm
INPUT /usr/share/texlive/texmf-dist/fonts/tfm/public/cm/cmmi6.tfm
INPUT /usr/share/texlive/texmf-dist/fonts/tfm/public/cm/cmsy8.tfm
INPUT /usr/share/texlive/texmf-dist/fonts/tfm/public/cm/cmsy6.tfm
INPUT /usr/share/texlive/texmf-dist/fonts/tfm/public/amsfonts/cmextra/cmex8.tfm
INPUT /usr/share/texlive/texmf-dist/fonts/tfm/public/amsfonts/cmextra/cmex7.tfm
INPUT /usr/share/texlive/texmf-dist/fonts/tfm/public/amsfonts/cmextra/cmex7.tfm
INPUT /usr/share/texlive/texmf-dist/tex/latex/amsfonts/umsa.fd
INPUT /usr/share/texlive/texmf-dist/tex/latex/amsfonts/umsa.fd
INPUT /usr/share/texlive/texmf-dist/fonts/tfm/public/amsfonts/symbols/msam10.tfm
INPUT /usr/share/texlive/texmf-dist/fonts/tfm/public/amsfonts/symbols/msam7.tfm
INPUT /usr/share/texlive/texmf-dist/fonts/tfm/public/amsfonts/symbols/msam5.tfm
INPUT /usr/share/texlive/texmf-dist/tex/latex/amsfonts/umsb.fd
INPUT /usr/share/texlive/texmf-dist/tex/latex/amsfonts/umsb.fd
INPUT /usr/share/texlive/texmf-dist/fonts/tfm/public/amsfonts/symbols/msbm10.tfm
INPUT /usr/share/texlive/texmf-dist/fonts/tfm/public/amsfonts/symbols/msbm7.tfm
INPUT /usr/share/texlive/texmf-dist/fonts/tfm/public/amsfonts/symbols/msbm5.tfm
INPUT /usr/share/texlive/texmf-dist/fonts/tfm/public/cm/cmssi8.tfm
INPUT /usr/share/texlive/texmf-dist/fonts/tfm/public/cm/cmssi8.tfm
INPUT /usr/share/texlive/texmf-dist/fonts/tfm/public/cm/cmssi8.tfm
INPUT /usr/share/texlive/texmf-dist/fonts/tfm/public/cm/cmssbx10.tfm
INPUT /usr/share/texlive/texmf-dist/fonts/tfm/public/cm/cmss10.tfm
INPUT /usr/share/texlive/texmf-dist/fonts/tfm/public/cm/cmssbx10.tfm
INPUT /usr/share/texlive/texmf-dist/fonts/tfm/public/cm/cmss9.tfm
OUTPUT _region_.nav
OUTPUT _region_.toc
OUTPUT _region_.snm
INPUT _region_.aux
INPUT ./_region_.out
INPUT ./_region_.out
INPUT /usr/share/texlive/texmf-dist/fonts/type1/public/amsfonts/cm/cmss10.pfb
INPUT /usr/share/texlive/texmf-dist/fonts/type1/public/amsfonts/cm/cmss12.pfb
INPUT /usr/share/texlive/texmf-dist/fonts/type1/public/amsfonts/cm/cmss8.pfb
INPUT /usr/share/texlive/texmf-dist/fonts/type1/public/amsfonts/cm/cmss9.pfb
INPUT /usr/share/texlive/texmf-dist/fonts/type1/public/amsfonts/cm/cmssbx10.pfb
INPUT /usr/share/texlive/texmf-dist/fonts/type1/public/amsfonts/symbols/msam10.pfb
INPUT /usr/share/texlive/texmf-dist/fonts/type1/public/amsfonts/symbols/msam7.pfb
