\relax 
\providecommand\hyper@newdestlabel[2]{}
\providecommand\HyperFirstAtBeginDocument{\AtBeginDocument}
\HyperFirstAtBeginDocument{\ifx\hyper@anchor\@undefined
\global\let\oldcontentsline\contentsline
\gdef\contentsline#1#2#3#4{\oldcontentsline{#1}{#2}{#3}}
\global\let\oldnewlabel\newlabel
\gdef\newlabel#1#2{\newlabelxx{#1}#2}
\gdef\newlabelxx#1#2#3#4#5#6{\oldnewlabel{#1}{{#2}{#3}}}
\AtEndDocument{\ifx\hyper@anchor\@undefined
\let\contentsline\oldcontentsline
\let\newlabel\oldnewlabel
\fi}
\fi}
\global\let\hyper@last\relax 
\gdef\HyperFirstAtBeginDocument#1{#1}
\providecommand\HyField@AuxAddToFields[1]{}
\providecommand\HyField@AuxAddToCoFields[2]{}
\@writefile{toc}{\beamer@endinputifotherversion {3.26pt}}
\@writefile{nav}{\beamer@endinputifotherversion {3.26pt}}
\@writefile{nav}{\headcommand {\slideentry {0}{0}{1}{1/1}{}{0}}}
\@writefile{nav}{\headcommand {\beamer@framepages {1}{1}}}
\@writefile{nav}{\headcommand {\slideentry {0}{0}{2}{2/2}{}{0}}}
\@writefile{nav}{\headcommand {\beamer@framepages {2}{2}}}
\citation{tarjan85}
\@writefile{toc}{\beamer@sectionintoc {1}{Basics}{3}{0}{1}}
\@writefile{nav}{\headcommand {\sectionentry {1}{Basics}{3}{Basics}{0}}}
\@writefile{nav}{\headcommand {\beamer@sectionpages {1}{2}}}
\@writefile{nav}{\headcommand {\beamer@subsectionpages {1}{2}}}
\@writefile{toc}{\beamer@subsectionintoc {1}{1}{Resource Analysis - Problem}{3}{0}{1}}
\@writefile{nav}{\headcommand {\beamer@subsectionentry {0}{1}{1}{3}{Resource Analysis - Problem}}\headcommand {\beamer@subsectionpages {3}{2}}}
\@writefile{nav}{\headcommand {\slideentry {1}{1}{0}{3/3}{}{0}}}
\@writefile{nav}{\headcommand {\beamer@framepages {3}{3}}}
\citation{tarjan85}
\@writefile{toc}{\beamer@subsectionintoc {1}{2}{Amortised Resource Analysis - Solution}{4}{0}{1}}
\@writefile{nav}{\headcommand {\beamer@subsectionentry {0}{1}{2}{4}{Amortised Resource Analysis - Solution}}\headcommand {\beamer@subsectionpages {3}{3}}}
\@writefile{nav}{\headcommand {\slideentry {1}{2}{0}{4/4}{}{0}}}
\@writefile{nav}{\headcommand {\beamer@framepages {4}{4}}}
\@writefile{toc}{\beamer@sectionintoc {2}{\IeC {\textquotedblleft }Carbon Credits\IeC {\textquotedblright } for Resource-Bounded Computations Using Amortised Analysis}{5}{0}{2}}
\@writefile{nav}{\headcommand {\sectionentry {2}{\IeC {\textquotedblleft }Carbon Credits\IeC {\textquotedblright } for Resource-Bounded Computations Using Amortised Analysis}{5}{\IeC {\textquotedblleft }Carbon Credits\IeC {\textquotedblright } for Resource-Bounded Computations Using Amortised Analysis}{0}}}
\@writefile{nav}{\headcommand {\beamer@sectionpages {1}{4}}}
\@writefile{nav}{\headcommand {\beamer@subsectionpages {1}{4}}}
\@writefile{toc}{\beamer@subsectionintoc {2}{1}{Paper Content}{5}{0}{2}}
\@writefile{nav}{\headcommand {\beamer@subsectionentry {0}{2}{1}{5}{Paper Content}}\headcommand {\beamer@subsectionpages {5}{4}}}
\@writefile{nav}{\headcommand {\slideentry {2}{1}{0}{5/5}{}{0}}}
\@writefile{nav}{\headcommand {\beamer@framepages {5}{5}}}
\@writefile{toc}{\beamer@subsectionintoc {2}{2}{Results}{6}{0}{2}}
\@writefile{nav}{\headcommand {\beamer@subsectionentry {0}{2}{2}{6}{Results}}\headcommand {\beamer@subsectionpages {5}{5}}}
\@writefile{nav}{\headcommand {\slideentry {2}{2}{0}{6/6}{}{0}}}
\@writefile{nav}{\headcommand {\beamer@framepages {6}{6}}}
\citation{MoserNotes}
\@writefile{toc}{\beamer@sectionintoc {3}{Georg Moser's Notes on Amortised Cost Analysis}{7}{0}{3}}
\@writefile{nav}{\headcommand {\sectionentry {3}{Georg Moser's Notes on Amortised Cost Analysis}{7}{Georg Moser's Notes on Amortised Cost Analysis}{0}}}
\@writefile{nav}{\headcommand {\beamer@sectionpages {1}{6}}}
\@writefile{nav}{\headcommand {\beamer@subsectionpages {1}{6}}}
\@writefile{toc}{\beamer@subsectionintoc {3}{1}{The Idea}{7}{0}{3}}
\@writefile{nav}{\headcommand {\beamer@subsectionentry {0}{3}{1}{7}{The Idea}}\headcommand {\beamer@subsectionpages {7}{6}}}
\@writefile{nav}{\headcommand {\slideentry {3}{1}{0}{7/7}{}{0}}}
\@writefile{nav}{\headcommand {\beamer@framepages {7}{7}}}
\@writefile{toc}{\beamer@sectionintoc {4}{Bachelorthesis: Amortised Resource Analysis and Carbon Credits}{8}{0}{4}}
\@writefile{nav}{\headcommand {\sectionentry {4}{Bachelorthesis: Amortised Resource Analysis and Carbon Credits}{8}{Bachelorthesis: Amortised Resource Analysis and Carbon Credits}{0}}}
\@writefile{nav}{\headcommand {\beamer@sectionpages {1}{7}}}
\@writefile{nav}{\headcommand {\beamer@subsectionpages {1}{7}}}
\@writefile{toc}{\beamer@subsectionintoc {4}{1}{Requierement 1}{8}{0}{4}}
\@writefile{nav}{\headcommand {\beamer@subsectionentry {0}{4}{1}{8}{Requierement 1}}\headcommand {\beamer@subsectionpages {8}{7}}}
\@writefile{nav}{\headcommand {\slideentry {4}{1}{0}{8/8}{}{0}}}
\@writefile{nav}{\headcommand {\beamer@framepages {8}{8}}}
\@writefile{toc}{\beamer@subsectionintoc {4}{2}{Requierement 2}{9}{0}{4}}
\@writefile{nav}{\headcommand {\beamer@subsectionentry {0}{4}{2}{9}{Requierement 2}}\headcommand {\beamer@subsectionpages {8}{8}}}
\@writefile{nav}{\headcommand {\slideentry {4}{2}{0}{9/9}{}{0}}}
\@writefile{nav}{\headcommand {\beamer@framepages {9}{9}}}
\@writefile{toc}{\beamer@subsectionintoc {4}{3}{Requierement 3}{10}{0}{4}}
\@writefile{nav}{\headcommand {\beamer@subsectionentry {0}{4}{3}{10}{Requierement 3}}\headcommand {\beamer@subsectionpages {8}{9}}}
\@writefile{nav}{\headcommand {\slideentry {4}{3}{0}{10/10}{}{0}}}
\@writefile{nav}{\headcommand {\beamer@framepages {10}{10}}}
\@writefile{toc}{\beamer@sectionintoc {5}{Questions - Remarks}{11}{0}{5}}
\@writefile{nav}{\headcommand {\sectionentry {5}{Questions - Remarks}{11}{Questions - Remarks}{0}}}
\@writefile{nav}{\headcommand {\beamer@sectionpages {1}{10}}}
\@writefile{nav}{\headcommand {\beamer@subsectionpages {1}{10}}}
\@writefile{nav}{\headcommand {\slideentry {5}{0}{1}{11/11}{}{0}}}
\@writefile{nav}{\headcommand {\beamer@framepages {11}{11}}}
\@writefile{nav}{\headcommand {\slideentry {5}{0}{2}{12/12}{}{0}}}
\@writefile{nav}{\headcommand {\beamer@framepages {12}{12}}}
\bibstyle{apalike}
\bibdata{bib/db}
\@writefile{nav}{\headcommand {\beamer@partpages {1}{12}}}
\@writefile{nav}{\headcommand {\beamer@subsectionpages {1}{12}}}
\@writefile{nav}{\headcommand {\beamer@sectionpages {1}{12}}}
\@writefile{nav}{\headcommand {\beamer@documentpages {12}}}
\@writefile{nav}{\headcommand {\def \inserttotalframenumber {11}}}
