PWD /home/schnecki/Documents/UIBK/5.Semester/Bachelorarbeit/Presentations/Initial_Presentation
INPUT /usr/share/texlive/texmf-dist/web2c/texmf.cnf
INPUT /usr/share/texlive/texmf-var/web2c/pdftex/pdflatex.fmt
INPUT my_work.tex
OUTPUT my_work.log
