\relax 
\providecommand\hyper@newdestlabel[2]{}
\providecommand\HyperFirstAtBeginDocument{\AtBeginDocument}
\HyperFirstAtBeginDocument{\ifx\hyper@anchor\@undefined
\global\let\oldcontentsline\contentsline
\gdef\contentsline#1#2#3#4{\oldcontentsline{#1}{#2}{#3}}
\global\let\oldnewlabel\newlabel
\gdef\newlabel#1#2{\newlabelxx{#1}#2}
\gdef\newlabelxx#1#2#3#4#5#6{\oldnewlabel{#1}{{#2}{#3}}}
\AtEndDocument{\ifx\hyper@anchor\@undefined
\let\contentsline\oldcontentsline
\let\newlabel\oldnewlabel
\fi}
\fi}
\global\let\hyper@last\relax 
\gdef\HyperFirstAtBeginDocument#1{#1}
\providecommand\HyField@AuxAddToFields[1]{}
\providecommand\HyField@AuxAddToCoFields[2]{}
\providecommand \oddpage@label [2]{}
\@writefile{toc}{\beamer@endinputifotherversion {3.32pt}}
\@writefile{nav}{\beamer@endinputifotherversion {3.32pt}}
\@writefile{nav}{\headcommand {\slideentry {0}{0}{1}{1/1}{}{0}}}
\@writefile{nav}{\headcommand {\beamer@framepages {1}{1}}}
\@writefile{nav}{\headcommand {\slideentry {0}{0}{2}{2/2}{}{0}}}
\@writefile{nav}{\headcommand {\beamer@framepages {2}{2}}}
\citation{tarjan85}
\@writefile{toc}{\beamer@sectionintoc {1}{Amortized Resource Analysis}{1}{0}{1}}
\@writefile{nav}{\headcommand {\sectionentry {1}{Amortized Resource Analysis}{1}{Amortized Resource Analysis}{0}}}
\@writefile{nav}{\headcommand {\beamer@sectionpages {1}{0}}}
\@writefile{nav}{\headcommand {\beamer@subsectionpages {1}{0}}}
\citation{tarjan85}
\@writefile{nav}{\headcommand {\slideentry {1}{0}{3}{1/2}{}{0}}}
\@writefile{nav}{\headcommand {\beamer@framepages {1}{2}}}
\citation{tarjan85}
\citation{tarjan85}
\@writefile{nav}{\headcommand {\slideentry {1}{0}{4}{3/4}{}{0}}}
\@writefile{nav}{\headcommand {\beamer@framepages {3}{4}}}
\citation{tarjan85}
\citation{tarjan85}
\citation{tarjan85}
\citation{tarjan85}
\citation{tarjan85}
\@writefile{nav}{\headcommand {\slideentry {1}{0}{5}{5/9}{}{0}}}
\@writefile{nav}{\headcommand {\beamer@framepages {5}{9}}}
\providecommand*\caption@xref[2]{\@setref\relax\@undefined{#1}}
\newlabel{fig:stack}{{\caption@xref {fig:stack}{ on input line 365}}{10}{\sectiontitle }{Doc-Start}{}}
\@writefile{snm}{\beamer@slide {fig:stack}{10}}
\@writefile{nav}{\headcommand {\slideentry {1}{0}{6}{10/14}{}{0}}}
\@writefile{nav}{\headcommand {\beamer@framepages {10}{14}}}
\@writefile{toc}{\beamer@sectionintoc {2}{Term Rewrite Systems}{15}{0}{2}}
\@writefile{nav}{\headcommand {\sectionentry {2}{Term Rewrite Systems}{15}{Term Rewrite Systems}{0}}}
\@writefile{nav}{\headcommand {\beamer@sectionpages {1}{14}}}
\@writefile{nav}{\headcommand {\beamer@subsectionpages {1}{14}}}
\newlabel{sec:Term_Rewrite_Systems}{{2}{15}{Term Rewrite Systems}{Doc-Start}{}}
\@writefile{snm}{\beamer@slide {sec:Term_Rewrite_Systems}{15}}
\@writefile{nav}{\headcommand {\slideentry {2}{0}{7}{15/19}{}{0}}}
\@writefile{nav}{\headcommand {\beamer@framepages {15}{19}}}
\newlabel{lst:example_derivation}{{8}{20}{}{Doc-Start}{}}
\@writefile{snm}{\beamer@slide {lst:example_derivation}{20}}
\@writefile{nav}{\headcommand {\slideentry {2}{0}{8}{20/21}{}{0}}}
\@writefile{nav}{\headcommand {\beamer@framepages {20}{21}}}
\@writefile{nav}{\headcommand {\slideentry {2}{0}{9}{22/24}{}{0}}}
\@writefile{nav}{\headcommand {\beamer@framepages {22}{24}}}
\@writefile{toc}{\beamer@sectionintoc {3}{Bachelorthesis: Amortized Resource Analysis and Carbon Credits}{25}{0}{3}}
\@writefile{nav}{\headcommand {\sectionentry {3}{Bachelorthesis: Amortized Resource Analysis and Carbon Credits}{25}{Bachelorthesis: Amortized Resource Analysis and Carbon Credits}{0}}}
\@writefile{nav}{\headcommand {\beamer@sectionpages {15}{24}}}
\@writefile{nav}{\headcommand {\beamer@subsectionpages {15}{24}}}
\@writefile{nav}{\headcommand {\slideentry {3}{0}{10}{25/25}{}{0}}}
\@writefile{nav}{\headcommand {\beamer@framepages {25}{25}}}
\@writefile{nav}{\headcommand {\slideentry {3}{0}{11}{26/26}{}{0}}}
\@writefile{nav}{\headcommand {\beamer@framepages {26}{26}}}
\@writefile{nav}{\headcommand {\slideentry {3}{0}{12}{27/27}{}{0}}}
\@writefile{nav}{\headcommand {\beamer@framepages {27}{27}}}
\@writefile{nav}{\headcommand {\slideentry {3}{0}{13}{28/29}{}{0}}}
\@writefile{nav}{\headcommand {\beamer@framepages {28}{29}}}
\@writefile{toc}{\beamer@sectionintoc {4}{Live Demo}{30}{0}{4}}
\@writefile{nav}{\headcommand {\sectionentry {4}{Live Demo}{30}{Live Demo}{0}}}
\@writefile{nav}{\headcommand {\beamer@sectionpages {15}{29}}}
\@writefile{nav}{\headcommand {\beamer@subsectionpages {15}{29}}}
\@writefile{nav}{\headcommand {\slideentry {4}{0}{14}{30/30}{}{0}}}
\@writefile{nav}{\headcommand {\beamer@framepages {30}{30}}}
\@writefile{toc}{\beamer@sectionintoc {5}{Details}{31}{0}{5}}
\@writefile{nav}{\headcommand {\sectionentry {5}{Details}{31}{Details}{0}}}
\@writefile{nav}{\headcommand {\beamer@sectionpages {30}{30}}}
\@writefile{nav}{\headcommand {\beamer@subsectionpages {30}{30}}}
\@writefile{nav}{\headcommand {\slideentry {5}{0}{15}{31/34}{}{0}}}
\@writefile{nav}{\headcommand {\beamer@framepages {31}{34}}}
\@writefile{nav}{\headcommand {\slideentry {5}{0}{16}{35/35}{}{0}}}
\@writefile{nav}{\headcommand {\beamer@framepages {35}{35}}}
\@writefile{toc}{\beamer@sectionintoc {6}{Results}{36}{0}{6}}
\@writefile{nav}{\headcommand {\sectionentry {6}{Results}{36}{Results}{0}}}
\@writefile{nav}{\headcommand {\beamer@sectionpages {31}{35}}}
\@writefile{nav}{\headcommand {\beamer@subsectionpages {31}{35}}}
\newlabel{sec:Results}{{6}{36}{Results}{Doc-Start}{}}
\@writefile{snm}{\beamer@slide {sec:Results}{36}}
\newlabel{tbl:obs}{{1}{36}{Results}{Doc-Start}{}}
\@writefile{snm}{\beamer@slide {tbl:obs}{36}}
\@writefile{nav}{\headcommand {\slideentry {6}{0}{17}{36/36}{}{0}}}
\@writefile{nav}{\headcommand {\beamer@framepages {36}{36}}}
\@writefile{nav}{\headcommand {\slideentry {6}{0}{18}{37/37}{}{0}}}
\@writefile{nav}{\headcommand {\beamer@framepages {37}{37}}}
\@writefile{nav}{\headcommand {\slideentry {6}{0}{19}{38/38}{}{0}}}
\@writefile{nav}{\headcommand {\beamer@framepages {38}{38}}}
\@writefile{nav}{\headcommand {\slideentry {6}{0}{20}{39/39}{}{0}}}
\@writefile{nav}{\headcommand {\beamer@framepages {39}{39}}}
\@writefile{nav}{\headcommand {\slideentry {6}{0}{21}{40/40}{}{0}}}
\@writefile{nav}{\headcommand {\beamer@framepages {40}{40}}}
\@writefile{nav}{\headcommand {\slideentry {6}{0}{22}{41/41}{}{0}}}
\@writefile{nav}{\headcommand {\beamer@framepages {41}{41}}}
\@writefile{toc}{\beamer@sectionintoc {7}{Future Work}{42}{0}{7}}
\@writefile{nav}{\headcommand {\sectionentry {7}{Future Work}{42}{Future Work}{0}}}
\@writefile{nav}{\headcommand {\beamer@sectionpages {36}{41}}}
\@writefile{nav}{\headcommand {\beamer@subsectionpages {36}{41}}}
\newlabel{sec:Future_Work}{{7}{42}{Future Work}{Doc-Start}{}}
\@writefile{snm}{\beamer@slide {sec:Future_Work}{42}}
\@writefile{nav}{\headcommand {\slideentry {7}{0}{23}{42/44}{}{0}}}
\@writefile{nav}{\headcommand {\beamer@framepages {42}{44}}}
\@writefile{toc}{\beamer@sectionintoc {8}{Questions -\ Remarks}{45}{0}{8}}
\@writefile{nav}{\headcommand {\sectionentry {8}{Questions -\ Remarks}{45}{Questions -\ Remarks}{0}}}
\@writefile{nav}{\headcommand {\beamer@sectionpages {42}{44}}}
\@writefile{nav}{\headcommand {\beamer@subsectionpages {42}{44}}}
\@writefile{nav}{\headcommand {\slideentry {8}{0}{24}{45/45}{}{0}}}
\@writefile{nav}{\headcommand {\beamer@framepages {45}{45}}}
\bibstyle{apalike}
\bibdata{biblio.bib}
\bibcite{tarjan85}{\hyperlink {beamerbibtarjan85}{Tarjan, 1985}}
\@writefile{nav}{\headcommand {\beamer@partpages {1}{46}}}
\@writefile{nav}{\headcommand {\beamer@subsectionpages {42}{46}}}
\@writefile{nav}{\headcommand {\beamer@sectionpages {42}{46}}}
\@writefile{nav}{\headcommand {\beamer@documentpages {46}}}
\@writefile{nav}{\headcommand {\def \inserttotalframenumber {23}}}
