\relax 
\providecommand\hyper@newdestlabel[2]{}
\citation{moser}
\citation{moser}
\citation{JLHSH09}
\citation{JLHSH09}
\@writefile{toc}{\contentsline {chapter}{\numberline {5}Conclusion}{33}{chapter.5}}
\@writefile{lof}{\addvspace {10\p@ }}
\@writefile{lot}{\addvspace {10\p@ }}
\@writefile{lol}{\addvspace {10\p@ }}
\newlabel{sec:Conclusion}{{5}{33}{Conclusion}{chapter.5}{}}
\@setckpt{conclusion}{
\setcounter{page}{34}
\setcounter{equation}{0}
\setcounter{enumi}{8}
\setcounter{enumii}{0}
\setcounter{enumiii}{0}
\setcounter{enumiv}{0}
\setcounter{footnote}{0}
\setcounter{mpfootnote}{0}
\setcounter{part}{0}
\setcounter{chapter}{5}
\setcounter{section}{0}
\setcounter{subsection}{0}
\setcounter{subsubsection}{0}
\setcounter{paragraph}{0}
\setcounter{subparagraph}{0}
\setcounter{figure}{0}
\setcounter{table}{0}
\setcounter{parentequation}{0}
\setcounter{Item}{38}
\setcounter{Hfootnote}{3}
\setcounter{bookmark@seq@number}{19}
\setcounter{corollary}{0}
\setcounter{r@tfl@t}{0}
\setcounter{NAT@ctr}{0}
\setcounter{remark}{0}
\setcounter{lstnumber}{35}
\setcounter{section@level}{1}
\setcounter{lstlisting}{0}
}
